INDEX VERSION 1.129+F:\VivilexDemos\.metadata\.plugins\org.eclipse.jdt.core
3053462828.index
3590277844.index
3878457715.index
2164323049.index
686822228.index
1150956405.index
3252870998.index
4269035837.index
3425588039.index
2868536105.index
3681335767.index
3119455041.index
1439400173.index
4247247250.index
2927524569.index
4281392909.index
566497047.index
1954561361.index
1904741536.index
375126478.index
2606317013.index
3685128429.index
3874109554.index
4166838873.index
3622249773.index
3787405627.index
3184649542.index
3584339134.index
2017505986.index
3172068124.index
3201580241.index
1583927216.index
2850946694.index
3362845060.index
2312443017.index
1114423613.index
1130383677.index
3256285438.index
2660606374.index
3233371914.index
3888900027.index
3307785452.index
2076298402.index
486699731.index
2831536327.index
396875389.index
441248022.index
1847969816.index
2314623583.index
3145587634.index
2363097004.index
3152055649.index
2167310551.index
2671282017.index
1633860707.index
1004716384.index
188619105.index
2843220787.index
1897591454.index
